DATA 621 â€“ Final Project
…
changeOverTime
Percent change of each interval relative to first value. Useful for comparing multiple stocks.

ticker
Abbreviation used to uniquely identify publicly traded shares

dataset <- read_csv('stocks_combined.csv')
tickers <- read_csv('tickers.csv')

The tickers available in this dataset are listed below. We will be focusing on the AAPL stock which is described below.

tickers

## # A tibble: 30 x 2
##    Ticker Company                 
##    <chr>  <chr>                   
##  1 AAPL   Apple Inc               
##  2 AXP    American Express Company
##  3 BA     Boeing Co               
##  4 CAT    Caterpillar Inc.        
##  5 CSCO   Cisco Systems, Inc.     
##  6 CVX    Chevron Corporation     
##  7 DIS    Walt Disney Co          
##  8 DWDP   DowDuPont               
##  9 GS     GlaxoSmithKline plc     
## 10 HD     The Home Depot, Inc.    
## # ... with 20 more rows
…
balanced_tickers <- unique(dataset2$ticker)
dataset2_full <- dataset2 %>% filter(ticker=="AAPL") %>% create_predictors() 

for(i in balanced_tickers[2:length(balanced_tickers)])
{
 dataset2_full <- rbind(dataset2_full, dataset2 %>% filter(ticker==i) %>% create_predictors())
}

dataset2_full %>% filter(date=="2014-05-21")

## # A tibble: 29 x 18
##    date       ticker  open  high   low close   volume unadjustedVolume change
##    <date>     <chr>  <dbl> <dbl> <dbl> <dbl>    <dbl>            <dbl>  <dbl>
##  1 2014-05-21 AAPL    79.4  79.7  79.1  79.7 49249914          7035702  0.210
##  2 2014-05-21 AXP     81.4  81.9  81.2  81.7  2525553          2525553  0.716
##  3 2014-05-21 BA     115.  116.  115.  116.   2476186          2476186  1.22 
##  4 2014-05-21 CAT     87.4  88.7  87.4  88.6  5460511          5460511  1.14 
##  5 2014-05-21 CSCO    20.8  21.2  20.8  21.0 65262617         65262617  0.309
##  6 2014-05-21 CVX    101.  103.  101.  102.   4758794          4758794  1.37 
##  7 2014-05-21 DIS     75.8  76.7  75.8  76.6  4736535          4736535  1.02 
##  8 2014-05-21 GS     147.  150.  147.  149.   4226325          4226325  2.81 
##  9 2014-05-21 HD      70.7  70.9  70.2  70.5  6693930          6693930  0.108
## 10 2014-05-21 IBM    156.  157.  155.  156.   2988348          2988348  1.26 
## # ... with 19 more rows, and 9 more variables: changePercent <dbl>, vwap <dbl>,
## #   changeOverTime <dbl>, macd <dbl>, m5 <dbl>, m20 <dbl>, rsi <dbl>,
## #   vol1 <dbl>, vol5 <dbl>
…
